\relax 
\citation{dontoverfit}
\citation{Vapnik95}
\citation{Vapnik98}
\@writefile{toc}{\contentsline {section}{\numberline {1}Introduction}{1}}
\@writefile{toc}{\contentsline {section}{\numberline {2}SVM}{1}}
\@writefile{toc}{\contentsline {section}{\numberline {3}SVC}{1}}
\citation{CC01a}
\citation{gsa}
\citation{saltelliannoni}
\citation{Chen06}
\@writefile{toc}{\contentsline {section}{\numberline {4}PenalizedSVM}{2}}
\@writefile{toc}{\contentsline {section}{\numberline {5}F-score Feature Selection}{2}}
\citation{Statistics01randomforests}
\@writefile{toc}{\contentsline {section}{\numberline {6}Random Forest}{3}}
\bibstyle{plain}
\bibdata{bibliography}
\bibcite{dontoverfit}{1}
\bibcite{saltelliannoni}{2}
\bibcite{CC01a}{3}
\bibcite{Chen06}{4}
\bibcite{gsa}{5}
\bibcite{Statistics01randomforests}{6}
\bibcite{Vapnik95}{7}
\bibcite{Vapnik98}{8}
\@writefile{toc}{\contentsline {section}{\numberline {7}Conclusion}{4}}
