%!PS-Adobe-3.0 EPSF-3.0
%%DocumentNeededResources: font Helvetica
%%+ font Helvetica-Bold
%%+ font Helvetica-Oblique
%%+ font Helvetica-BoldOblique
%%+ font Symbol
%%Title: R Graphics Output
%%Creator: R Software
%%Pages: (atend)
%%BoundingBox: 0 0 504 504
%%EndComments
%%BeginProlog
/bp  { gs sRGB gs } def
% begin .ps.prolog
/gs  { gsave } bind def
/gr  { grestore } bind def
/ep  { showpage gr gr } bind def
/m   { moveto } bind def
/l  { rlineto } bind def
/np  { newpath } bind def
/cp  { closepath } bind def
/f   { fill } bind def
/o   { stroke } bind def
/c   { newpath 0 360 arc } bind def
/r   { 4 2 roll moveto 1 copy 3 -1 roll exch 0 exch rlineto 0 rlineto -1 mul 0 exch rlineto closepath } bind def
/p1  { stroke } bind def
/p2  { gsave bg fill grestore newpath } bind def
/p3  { gsave bg fill grestore stroke } bind def
/p6  { gsave bg eofill grestore newpath } bind def
/p7  { gsave bg eofill grestore stroke } bind def
/t   { 5 -2 roll moveto gsave rotate
       1 index stringwidth pop
       mul neg 0 rmoveto show grestore } bind def
/ta  { 4 -2 roll moveto gsave rotate show } bind def
/tb  { 2 -1 roll 0 rmoveto show } bind def
/cl  { grestore gsave newpath 3 index 3 index moveto 1 index
       4 -1 roll lineto  exch 1 index lineto lineto
       closepath clip newpath } bind def
/rgb { setrgbcolor } bind def
/s   { scalefont setfont } bind def
% end   .ps.prolog
/sRGB { [ /CIEBasedABC
          << /DecodeLMN
               [ { dup 0.03928 le
                        {12.92321 div}
                        {0.055 add 1.055 div 2.4 exp }
                     ifelse
                 } bind dup dup
               ]
             /MatrixLMN [0.412457 0.212673 0.019334
                         0.357576 0.715152 0.119192
                         0.180437 0.072175 0.950301]
             /WhitePoint [0.9505 1.0 1.0890]
           >>
         ] setcolorspace } bind def
/srgb { setcolor } bind def
%%IncludeResource: font Helvetica
/Helvetica findfont
dup length dict begin
  {1 index /FID ne {def} {pop pop} ifelse} forall
  /Encoding ISOLatin1Encoding def
  currentdict
  end
/Font1 exch definefont pop
%%IncludeResource: font Helvetica-Bold
/Helvetica-Bold findfont
dup length dict begin
  {1 index /FID ne {def} {pop pop} ifelse} forall
  /Encoding ISOLatin1Encoding def
  currentdict
  end
/Font2 exch definefont pop
%%IncludeResource: font Helvetica-Oblique
/Helvetica-Oblique findfont
dup length dict begin
  {1 index /FID ne {def} {pop pop} ifelse} forall
  /Encoding ISOLatin1Encoding def
  currentdict
  end
/Font3 exch definefont pop
%%IncludeResource: font Helvetica-BoldOblique
/Helvetica-BoldOblique findfont
dup length dict begin
  {1 index /FID ne {def} {pop pop} ifelse} forall
  /Encoding ISOLatin1Encoding def
  currentdict
  end
/Font4 exch definefont pop
%%IncludeResource: font Symbol
/Symbol findfont
dup length dict begin
  {1 index /FID ne {def} {pop pop} ifelse} forall
  currentdict
  end
/Font5 exch definefont pop
%%EndProlog
%%Page: 1 1
bp
0.00 0.00 504.00 504.00 cl
/bg { 0 0 0.5451 srgb } def
0 0 0 srgb
0.75 setlinewidth
[] 0 setdash
1 setlinecap
1 setlinejoin
10.00 setmiterlimit
74.40 77.12 22.59 276.64 r p3
/bg { 1 0 0 srgb } def
96.99 77.12 22.59 364.75 r p3
/bg { 0 0 0.5451 srgb } def
142.16 77.12 22.59 285.31 r p3
/bg { 1 0 0 srgb } def
164.75 77.12 22.59 282.50 r p3
/bg { 0 0 0.5451 srgb } def
209.93 77.12 22.59 315.43 r p3
/bg { 1 0 0 srgb } def
232.52 77.12 22.59 367.84 r p3
/bg { 0 0 0.5451 srgb } def
277.69 77.12 22.59 309.32 r p3
/bg { 1 0 0 srgb } def
300.28 77.12 22.59 304.22 r p3
/bg { 0 0 0.5451 srgb } def
345.46 77.12 22.59 243.87 r p3
/bg { 1 0 0 srgb } def
368.05 77.12 22.59 367.84 r p3
/bg { 0 0 0.5451 srgb } def
413.22 77.12 22.59 312.10 r p3
/bg { 1 0 0 srgb } def
435.81 77.12 22.59 367.84 r p3
0.00 0.00 504.00 504.00 cl
/Font1 findfont 12 s
0 0 0 srgb
96.99 47.52 (SVM) .5 0 t
164.75 47.52 (SVC) .5 0 t
193.84 47.52 (penaliz) 0 ta
-0.180 (edSVM) tb gr
300.28 47.52 (fscore) .5 0 t
330.70 47.52 (r) 0 ta
-0.120 (andomF) tb
-0.360 (orest) tb gr
435.81 47.52 (rf+GINI) .5 0 t
0.00 0.00 504.00 504.00 cl
/Font2 findfont 14 s
0 0 0 srgb
251.24 469.45 (A) 0 ta
-0.700 (UC) tb gr
0.00 0.00 504.00 504.00 cl
0 0 0 srgb
0.75 setlinewidth
[] 0 setdash
1 setlinecap
1 setlinejoin
10.00 setmiterlimit
np
59.04 77.12 m
0 367.84 l
o
np
59.04 77.12 m
-7.20 0 l
o
np
59.04 150.69 m
-7.20 0 l
o
np
59.04 224.26 m
-7.20 0 l
o
np
59.04 297.82 m
-7.20 0 l
o
np
59.04 371.39 m
-7.20 0 l
o
np
59.04 444.96 m
-7.20 0 l
o
/Font1 findfont 12 s
41.76 77.12 (0.0) .5 90 t
41.76 150.69 (0.2) .5 90 t
41.76 224.26 (0.4) .5 90 t
41.76 297.82 (0.6) .5 90 t
41.76 371.39 (0.8) .5 90 t
41.76 444.96 (1.0) .5 90 t
ep
%%Trailer
%%Pages: 1
%%EOF
