%!PS-Adobe-3.0 EPSF-3.0
%%DocumentNeededResources: font Helvetica
%%+ font Helvetica-Bold
%%+ font Helvetica-Oblique
%%+ font Helvetica-BoldOblique
%%+ font Symbol
%%Title: R Graphics Output
%%Creator: R Software
%%Pages: (atend)
%%BoundingBox: 0 0 504 504
%%EndComments
%%BeginProlog
/bp  { gs sRGB gs } def
% begin .ps.prolog
/gs  { gsave } bind def
/gr  { grestore } bind def
/ep  { showpage gr gr } bind def
/m   { moveto } bind def
/l  { rlineto } bind def
/np  { newpath } bind def
/cp  { closepath } bind def
/f   { fill } bind def
/o   { stroke } bind def
/c   { newpath 0 360 arc } bind def
/r   { 4 2 roll moveto 1 copy 3 -1 roll exch 0 exch rlineto 0 rlineto -1 mul 0 exch rlineto closepath } bind def
/p1  { stroke } bind def
/p2  { gsave bg fill grestore newpath } bind def
/p3  { gsave bg fill grestore stroke } bind def
/p6  { gsave bg eofill grestore newpath } bind def
/p7  { gsave bg eofill grestore stroke } bind def
/t   { 5 -2 roll moveto gsave rotate
       1 index stringwidth pop
       mul neg 0 rmoveto show grestore } bind def
/ta  { 4 -2 roll moveto gsave rotate show } bind def
/tb  { 2 -1 roll 0 rmoveto show } bind def
/cl  { grestore gsave newpath 3 index 3 index moveto 1 index
       4 -1 roll lineto  exch 1 index lineto lineto
       closepath clip newpath } bind def
/rgb { setrgbcolor } bind def
/s   { scalefont setfont } bind def
% end   .ps.prolog
/sRGB { [ /CIEBasedABC
          << /DecodeLMN
               [ { dup 0.03928 le
                        {12.92321 div}
                        {0.055 add 1.055 div 2.4 exp }
                     ifelse
                 } bind dup dup
               ]
             /MatrixLMN [0.412457 0.212673 0.019334
                         0.357576 0.715152 0.119192
                         0.180437 0.072175 0.950301]
             /WhitePoint [0.9505 1.0 1.0890]
           >>
         ] setcolorspace } bind def
/srgb { setcolor } bind def
%%IncludeResource: font Helvetica
/Helvetica findfont
dup length dict begin
  {1 index /FID ne {def} {pop pop} ifelse} forall
  /Encoding ISOLatin1Encoding def
  currentdict
  end
/Font1 exch definefont pop
%%IncludeResource: font Helvetica-Bold
/Helvetica-Bold findfont
dup length dict begin
  {1 index /FID ne {def} {pop pop} ifelse} forall
  /Encoding ISOLatin1Encoding def
  currentdict
  end
/Font2 exch definefont pop
%%IncludeResource: font Helvetica-Oblique
/Helvetica-Oblique findfont
dup length dict begin
  {1 index /FID ne {def} {pop pop} ifelse} forall
  /Encoding ISOLatin1Encoding def
  currentdict
  end
/Font3 exch definefont pop
%%IncludeResource: font Helvetica-BoldOblique
/Helvetica-BoldOblique findfont
dup length dict begin
  {1 index /FID ne {def} {pop pop} ifelse} forall
  /Encoding ISOLatin1Encoding def
  currentdict
  end
/Font4 exch definefont pop
%%IncludeResource: font Symbol
/Symbol findfont
dup length dict begin
  {1 index /FID ne {def} {pop pop} ifelse} forall
  currentdict
  end
/Font5 exch definefont pop
%%EndProlog
%%Page: 1 1
bp
59.04 73.44 473.76 444.96 cl
0 0 0 srgb
0.75 setlinewidth
[] 0 setdash
1 setlinecap
1 setlinejoin
10.00 setmiterlimit
np
74.40 100.36 m
1.93 29.81 l
1.93 69.54 l
1.93 48.85 l
1.93 -128.31 l
1.93 -22.33 l
1.93 141.23 l
1.93 -148.60 l
1.93 25.52 l
1.93 -7.33 l
1.93 -9.57 l
1.93 -1.88 l
1.93 -7.31 l
1.93 17.08 l
1.93 -15.64 l
1.92 12.99 l
1.93 -17.07 l
1.93 11.76 l
1.93 -5.21 l
1.93 -3.82 l
1.93 7.14 l
1.93 -5.71 l
1.93 -3.87 l
1.93 7.96 l
1.93 45.56 l
1.93 -5.43 l
1.93 19.87 l
1.93 -67.81 l
1.93 22.64 l
1.93 61.16 l
1.93 -83.59 l
1.93 6.08 l
1.93 37.55 l
1.93 -44.02 l
1.93 24.57 l
1.93 15.23 l
1.93 -39.36 l
1.93 14.30 l
1.93 12.31 l
1.93 316.55 l
1.93 -336.30 l
1.93 -6.15 l
1.93 63.57 l
1.92 -55.97 l
1.93 13.12 l
1.93 15.04 l
1.93 99.89 l
1.93 -117.78 l
1.93 70.93 l
1.93 224.43 l
1.93 -314.23 l
1.93 14.16 l
1.93 8.58 l
1.93 -16.94 l
1.93 2.66 l
1.93 -7.70 l
1.93 33.51 l
1.93 -6.32 l
1.93 -24.78 l
1.93 10.92 l
1.93 -2.70 l
1.93 23.13 l
1.93 -34.33 l
1.93 42.90 l
1.93 -43.64 l
1.93 43.53 l
1.93 -43.53 l
1.93 9.84 l
1.93 9.78 l
1.93 -13.59 l
1.93 4.71 l
1.93 15.25 l
1.92 -23.89 l
1.93 8.90 l
1.93 5.28 l
1.93 -10.32 l
1.93 20.72 l
1.93 6.82 l
1.93 -9.43 l
1.93 36.83 l
1.93 -38.41 l
1.93 -17.31 l
1.93 9.83 l
1.93 45.75 l
1.93 -59.55 l
1.93 -0.72 l
1.93 5.32 l
1.93 131.61 l
1.93 -133.81 l
1.93 -3.35 l
1.93 15.34 l
1.93 -5.70 l
1.93 -0.30 l
1.93 49.33 l
1.93 -23.89 l
1.93 36.59 l
1.93 -64.19 l
1.93 -0.72 l
1.93 27.56 l
1.93 -28.44 l
267.36 110.80 lineto
1.93 -9.25 l
1.93 -13.69 l
1.93 16.71 l
1.93 64.20 l
1.93 -81.43 l
1.93 5.15 l
1.93 39.13 l
1.93 15.34 l
1.93 -59.51 l
1.93 1.62 l
1.93 -1.80 l
1.93 6.80 l
1.93 22.54 l
1.93 17.86 l
1.93 86.09 l
1.93 10.95 l
1.93 -143.21 l
1.93 112.45 l
1.93 -105.85 l
1.93 17.20 l
1.93 -15.38 l
1.93 17.90 l
1.93 -22.33 l
1.93 1.16 l
1.93 231.49 l
1.93 -82.62 l
1.93 -147.65 l
1.92 -0.34 l
1.93 71.05 l
1.93 -47.20 l
1.93 -30.97 l
1.93 10.33 l
1.93 70.10 l
1.93 -29.05 l
1.93 -6.85 l
1.93 -40.91 l
1.93 -3.63 l
1.93 55.44 l
1.93 11.41 l
1.93 -58.29 l
1.93 12.79 l
1.93 -20.01 l
1.93 22.31 l
1.93 -23.36 l
1.93 71.97 l
1.93 -72.23 l
1.93 94.07 l
1.93 -84.14 l
1.93 -6.20 l
1.93 -3.51 l
1.93 28.81 l
1.93 85.01 l
1.93 -109.90 l
1.93 4.57 l
1.93 15.42 l
1.93 -3.90 l
1.92 101.79 l
1.93 -79.30 l
1.93 -5.76 l
1.93 39.55 l
1.93 -58.93 l
1.93 12.43 l
1.93 -25.56 l
1.93 101.01 l
1.93 -105.30 l
1.93 24.39 l
1.93 -15.27 l
1.93 -4.31 l
1.93 26.63 l
1.93 -24.74 l
1.93 28.44 l
1.93 -34.99 l
1.93 126.94 l
1.93 -126.80 l
1.93 56.88 l
1.93 -8.72 l
1.93 105.65 l
1.93 -137.12 l
1.93 -17.14 l
1.93 -0.03 l
1.93 24.76 l
1.93 24.42 l
1.93 -48.65 l
1.93 62.79 l
1.92 -51.75 l
1.93 14.08 l
1.93 -23.20 l
1.93 -0.97 l
1.93 105.67 l
1.93 -107.03 l
1.93 44.63 l
1.93 -24.91 l
1.93 51.69 l
1.93 -58.30 l
1.93 -7.99 l
1.93 48.10 l
1.93 -53.12 l
1.93 48.14 l
1.93 -47.33 l
o
0.00 0.00 504.00 504.00 cl
0 0 0 srgb
0.75 setlinewidth
[] 0 setdash
1 setlinecap
1 setlinejoin
10.00 setmiterlimit
np
72.47 73.44 m
385.93 0 l
o
np
72.47 73.44 m
0 -7.20 l
o
np
168.95 73.44 m
0 -7.20 l
o
np
265.44 73.44 m
0 -7.20 l
o
np
361.92 73.44 m
0 -7.20 l
o
np
458.40 73.44 m
0 -7.20 l
o
/Font1 findfont 12 s
72.47 47.52 (0) .5 0 t
168.95 47.52 (50) .5 0 t
265.44 47.52 (100) .5 0 t
361.92 47.52 (150) .5 0 t
458.40 47.52 (200) .5 0 t
np
59.04 87.20 m
0 328.70 l
o
np
59.04 87.20 m
-7.20 0 l
o
np
59.04 169.38 m
-7.20 0 l
o
np
59.04 251.55 m
-7.20 0 l
o
np
59.04 333.73 m
-7.20 0 l
o
np
59.04 415.90 m
-7.20 0 l
o
41.76 87.20 (0.00) .5 90 t
41.76 169.38 (0.02) .5 90 t
41.76 251.55 (0.04) .5 90 t
41.76 333.73 (0.06) .5 90 t
41.76 415.90 (0.08) .5 90 t
np
59.04 73.44 m
414.72 0 l
0 371.52 l
-414.72 0 l
0 -371.52 l
o
0.00 0.00 504.00 504.00 cl
/Font2 findfont 14 s
0 0 0 srgb
266.40 469.45 (F-score Feature Selection) .5 0 t
/Font1 findfont 12 s
242.72 18.72 (F) 0 ta
-0.360 (eatures) tb gr
12.96 259.20 (F-score) .5 90 t
ep
%%Trailer
%%Pages: 1
%%EOF
