%!PS-Adobe-3.0 EPSF-3.0
%%DocumentNeededResources: font Helvetica
%%+ font Helvetica-Bold
%%+ font Helvetica-Oblique
%%+ font Helvetica-BoldOblique
%%+ font Symbol
%%Title: R Graphics Output
%%Creator: R Software
%%Pages: (atend)
%%BoundingBox: 0 0 504 504
%%EndComments
%%BeginProlog
/bp  { gs sRGB gs } def
% begin .ps.prolog
/gs  { gsave } bind def
/gr  { grestore } bind def
/ep  { showpage gr gr } bind def
/m   { moveto } bind def
/l  { rlineto } bind def
/np  { newpath } bind def
/cp  { closepath } bind def
/f   { fill } bind def
/o   { stroke } bind def
/c   { newpath 0 360 arc } bind def
/r   { 4 2 roll moveto 1 copy 3 -1 roll exch 0 exch rlineto 0 rlineto -1 mul 0 exch rlineto closepath } bind def
/p1  { stroke } bind def
/p2  { gsave bg fill grestore newpath } bind def
/p3  { gsave bg fill grestore stroke } bind def
/p6  { gsave bg eofill grestore newpath } bind def
/p7  { gsave bg eofill grestore stroke } bind def
/t   { 5 -2 roll moveto gsave rotate
       1 index stringwidth pop
       mul neg 0 rmoveto show grestore } bind def
/ta  { 4 -2 roll moveto gsave rotate show } bind def
/tb  { 2 -1 roll 0 rmoveto show } bind def
/cl  { grestore gsave newpath 3 index 3 index moveto 1 index
       4 -1 roll lineto  exch 1 index lineto lineto
       closepath clip newpath } bind def
/rgb { setrgbcolor } bind def
/s   { scalefont setfont } bind def
% end   .ps.prolog
/sRGB { [ /CIEBasedABC
          << /DecodeLMN
               [ { dup 0.03928 le
                        {12.92321 div}
                        {0.055 add 1.055 div 2.4 exp }
                     ifelse
                 } bind dup dup
               ]
             /MatrixLMN [0.412457 0.212673 0.019334
                         0.357576 0.715152 0.119192
                         0.180437 0.072175 0.950301]
             /WhitePoint [0.9505 1.0 1.0890]
           >>
         ] setcolorspace } bind def
/srgb { setcolor } bind def
%%IncludeResource: font Helvetica
/Helvetica findfont
dup length dict begin
  {1 index /FID ne {def} {pop pop} ifelse} forall
  /Encoding ISOLatin1Encoding def
  currentdict
  end
/Font1 exch definefont pop
%%IncludeResource: font Helvetica-Bold
/Helvetica-Bold findfont
dup length dict begin
  {1 index /FID ne {def} {pop pop} ifelse} forall
  /Encoding ISOLatin1Encoding def
  currentdict
  end
/Font2 exch definefont pop
%%IncludeResource: font Helvetica-Oblique
/Helvetica-Oblique findfont
dup length dict begin
  {1 index /FID ne {def} {pop pop} ifelse} forall
  /Encoding ISOLatin1Encoding def
  currentdict
  end
/Font3 exch definefont pop
%%IncludeResource: font Helvetica-BoldOblique
/Helvetica-BoldOblique findfont
dup length dict begin
  {1 index /FID ne {def} {pop pop} ifelse} forall
  /Encoding ISOLatin1Encoding def
  currentdict
  end
/Font4 exch definefont pop
%%IncludeResource: font Symbol
/Symbol findfont
dup length dict begin
  {1 index /FID ne {def} {pop pop} ifelse} forall
  currentdict
  end
/Font5 exch definefont pop
%%EndProlog
%%Page: 1 1
bp
59.04 73.44 473.76 444.96 cl
0 0 1 srgb
0.75 setlinewidth
[] 0 setdash
1 setlinecap
1 setlinejoin
10.00 setmiterlimit
np
74.40 419.10 m
1.93 0.30 l
1.93 0.31 l
1.93 0.32 l
1.93 0.18 l
1.93 0 l
1.93 0 l
1.93 0.31 l
1.93 0.18 l
1.93 0.16 l
1.93 0.04 l
1.93 0.19 l
1.93 0.36 l
1.93 0.26 l
1.93 0.23 l
1.92 -0.25 l
1.93 0.03 l
1.93 0.14 l
1.93 0.23 l
1.93 0.40 l
1.93 0.28 l
1.93 0.14 l
1.93 0.13 l
1.93 0.97 l
1.93 0.26 l
1.93 -0.05 l
1.93 0.57 l
1.93 0.06 l
1.93 0.41 l
1.93 0.41 l
1.93 0.08 l
1.93 -0.35 l
1.93 -0.15 l
1.93 -1.15 l
1.93 0.34 l
1.93 0.70 l
1.93 0.29 l
1.93 0.61 l
1.93 0.19 l
1.93 -0.03 l
1.93 0.25 l
1.93 0.14 l
1.93 0.35 l
1.92 0.48 l
1.93 -0.01 l
1.93 0.43 l
1.93 0.73 l
1.93 0.35 l
1.93 0.41 l
1.93 0.03 l
1.93 0.04 l
1.93 -0.09 l
1.93 0.40 l
1.93 0.26 l
1.93 0.23 l
1.93 0.29 l
1.93 0.36 l
1.93 0.22 l
1.93 -0.63 l
1.93 0.76 l
1.93 -0.97 l
1.93 -2.44 l
1.93 0.30 l
1.93 0.29 l
1.93 -1.11 l
1.93 -1.76 l
1.93 -1.01 l
1.93 -0.05 l
1.93 -0.68 l
1.93 1.03 l
1.93 0.27 l
1.93 0.22 l
1.92 0.56 l
1.93 -0.89 l
1.93 -1.42 l
1.93 0.56 l
1.93 0.06 l
1.93 0.49 l
1.93 -0.20 l
1.93 1.06 l
1.93 -1.46 l
1.93 0.71 l
1.93 -0.55 l
1.93 -1.14 l
1.93 -1.36 l
1.93 0.59 l
1.93 0.18 l
1.93 -2.29 l
1.93 -1.09 l
1.93 -2.66 l
1.93 1.36 l
1.93 -0.41 l
1.93 0.59 l
1.93 0.96 l
1.93 0.12 l
1.93 0.64 l
1.93 0.38 l
1.93 2.26 l
1.93 0.83 l
1.93 1.20 l
267.36 422.45 lineto
1.93 2.00 l
1.93 1.15 l
1.93 2.49 l
1.93 -2.47 l
1.93 -0.12 l
1.93 1.56 l
1.93 0.41 l
1.93 -2.67 l
1.93 1.28 l
1.93 -3.13 l
1.93 -2.75 l
1.93 -0.20 l
1.93 1.66 l
1.93 0.69 l
1.93 0.61 l
1.93 -4.18 l
1.93 0.42 l
1.93 -4.03 l
1.93 0.73 l
1.93 -2.91 l
1.93 0.99 l
1.93 -0.12 l
1.93 0.24 l
1.93 0.04 l
1.93 -3.18 l
1.93 -3.04 l
1.93 -0.03 l
1.92 -0.78 l
1.93 -3.72 l
1.93 -3.93 l
1.93 0.91 l
1.93 0.98 l
1.93 0.79 l
1.93 -2.46 l
1.93 -5.10 l
1.93 0.28 l
1.93 -1.98 l
1.93 0.96 l
1.93 -4.63 l
1.93 -0.13 l
1.93 2.41 l
1.93 -3.72 l
1.93 -9.43 l
1.93 0.61 l
1.93 -2.85 l
1.93 -4.70 l
1.93 -3.98 l
1.93 3.01 l
1.93 -4.80 l
1.93 -1.16 l
1.93 -6.16 l
1.93 -1.08 l
1.93 -6.74 l
1.93 -2.70 l
1.93 -10.03 l
1.93 -1.85 l
1.92 -2.42 l
1.93 1.84 l
1.93 -6.06 l
1.93 -3.29 l
1.93 -2.81 l
1.93 -6.29 l
1.93 -6.81 l
1.93 3.26 l
1.93 2.08 l
1.93 4.43 l
1.93 -1.21 l
1.93 2.74 l
1.93 -3.49 l
1.93 -6.73 l
1.93 -2.48 l
1.93 4.50 l
1.93 -6.47 l
1.93 -5.06 l
1.93 -10.78 l
1.93 -6.10 l
1.93 -7.49 l
1.93 -5.98 l
1.93 -8.38 l
1.93 -1.12 l
1.93 -5.45 l
1.93 -2.40 l
1.93 -7.78 l
1.93 -10.88 l
1.92 -3.80 l
1.93 -8.30 l
1.93 -7.65 l
1.93 -12.58 l
1.93 -3.92 l
1.93 -13.13 l
1.93 -10.31 l
1.93 -9.94 l
1.93 -16.09 l
1.93 -15.73 l
1.93 4.06 l
1.93 -19.49 l
1.93 -22.62 l
1.93 -6.58 l
1.93 -2.00 l
o
0.00 0.00 504.00 504.00 cl
0 0 0 srgb
0.75 setlinewidth
[] 0 setdash
1 setlinecap
1 setlinejoin
10.00 setmiterlimit
np
72.47 73.44 m
385.93 0 l
o
np
72.47 73.44 m
0 -7.20 l
o
np
168.95 73.44 m
0 -7.20 l
o
np
265.44 73.44 m
0 -7.20 l
o
np
361.92 73.44 m
0 -7.20 l
o
np
458.40 73.44 m
0 -7.20 l
o
/Font1 findfont 12 s
72.47 47.52 (0) .5 0 t
168.95 47.52 (50) .5 0 t
265.44 47.52 (100) .5 0 t
361.92 47.52 (150) .5 0 t
458.40 47.52 (200) .5 0 t
np
59.04 131.08 m
0 291.36 l
o
np
59.04 131.08 m
-7.20 0 l
o
np
59.04 189.35 m
-7.20 0 l
o
np
59.04 247.62 m
-7.20 0 l
o
np
59.04 305.90 m
-7.20 0 l
o
np
59.04 364.17 m
-7.20 0 l
o
np
59.04 422.44 m
-7.20 0 l
o
41.76 131.08 (0.60) .5 90 t
41.76 189.35 (0.65) .5 90 t
41.76 247.62 (0.70) .5 90 t
41.76 305.90 (0.75) .5 90 t
41.76 364.17 (0.80) .5 90 t
41.76 422.44 (0.85) .5 90 t
np
59.04 73.44 m
414.72 0 l
0 371.52 l
-414.72 0 l
0 -371.52 l
o
0.00 0.00 504.00 504.00 cl
/Font2 findfont 14 s
0 0 0 srgb
197.15 469.45 (eliminating v) 0 ta
-0.280 (ariab) tb
-0.140 (les) tb gr
/Font1 findfont 12 s
184.37 18.72 (Number of V) 0 ta
-0.840 (ar) tb
0.180 (iab) tb
-0.240 (les Remo) tb
-0.180 (v) tb
-0.300 (ed) tb gr
12.96 246.53 (A) 90 ta
-0.600 (UC) tb gr
59.04 73.44 473.76 444.96 cl
1 0 0 srgb
0.75 setlinewidth
[] 0 setdash
1 setlinecap
1 setlinejoin
10.00 setmiterlimit
188.25 431.20 2.70 c p1
ep
%%Trailer
%%Pages: 1
%%EOF
