%!PS-Adobe-3.0 EPSF-3.0
%%DocumentNeededResources: font Helvetica
%%+ font Helvetica-Bold
%%+ font Helvetica-Oblique
%%+ font Helvetica-BoldOblique
%%+ font Symbol
%%Title: R Graphics Output
%%Creator: R Software
%%Pages: (atend)
%%BoundingBox: 0 0 504 504
%%EndComments
%%BeginProlog
/bp  { gs sRGB gs } def
% begin .ps.prolog
/gs  { gsave } bind def
/gr  { grestore } bind def
/ep  { showpage gr gr } bind def
/m   { moveto } bind def
/l  { rlineto } bind def
/np  { newpath } bind def
/cp  { closepath } bind def
/f   { fill } bind def
/o   { stroke } bind def
/c   { newpath 0 360 arc } bind def
/r   { 4 2 roll moveto 1 copy 3 -1 roll exch 0 exch rlineto 0 rlineto -1 mul 0 exch rlineto closepath } bind def
/p1  { stroke } bind def
/p2  { gsave bg fill grestore newpath } bind def
/p3  { gsave bg fill grestore stroke } bind def
/p6  { gsave bg eofill grestore newpath } bind def
/p7  { gsave bg eofill grestore stroke } bind def
/t   { 5 -2 roll moveto gsave rotate
       1 index stringwidth pop
       mul neg 0 rmoveto show grestore } bind def
/ta  { 4 -2 roll moveto gsave rotate show } bind def
/tb  { 2 -1 roll 0 rmoveto show } bind def
/cl  { grestore gsave newpath 3 index 3 index moveto 1 index
       4 -1 roll lineto  exch 1 index lineto lineto
       closepath clip newpath } bind def
/rgb { setrgbcolor } bind def
/s   { scalefont setfont } bind def
% end   .ps.prolog
/sRGB { [ /CIEBasedABC
          << /DecodeLMN
               [ { dup 0.03928 le
                        {12.92321 div}
                        {0.055 add 1.055 div 2.4 exp }
                     ifelse
                 } bind dup dup
               ]
             /MatrixLMN [0.412457 0.212673 0.019334
                         0.357576 0.715152 0.119192
                         0.180437 0.072175 0.950301]
             /WhitePoint [0.9505 1.0 1.0890]
           >>
         ] setcolorspace } bind def
/srgb { setcolor } bind def
%%IncludeResource: font Helvetica
/Helvetica findfont
dup length dict begin
  {1 index /FID ne {def} {pop pop} ifelse} forall
  /Encoding ISOLatin1Encoding def
  currentdict
  end
/Font1 exch definefont pop
%%IncludeResource: font Helvetica-Bold
/Helvetica-Bold findfont
dup length dict begin
  {1 index /FID ne {def} {pop pop} ifelse} forall
  /Encoding ISOLatin1Encoding def
  currentdict
  end
/Font2 exch definefont pop
%%IncludeResource: font Helvetica-Oblique
/Helvetica-Oblique findfont
dup length dict begin
  {1 index /FID ne {def} {pop pop} ifelse} forall
  /Encoding ISOLatin1Encoding def
  currentdict
  end
/Font3 exch definefont pop
%%IncludeResource: font Helvetica-BoldOblique
/Helvetica-BoldOblique findfont
dup length dict begin
  {1 index /FID ne {def} {pop pop} ifelse} forall
  /Encoding ISOLatin1Encoding def
  currentdict
  end
/Font4 exch definefont pop
%%IncludeResource: font Symbol
/Symbol findfont
dup length dict begin
  {1 index /FID ne {def} {pop pop} ifelse} forall
  currentdict
  end
/Font5 exch definefont pop
%%EndProlog
%%Page: 1 1
bp
59.04 73.44 473.76 444.96 cl
0 0 0 srgb
1.50 setlinewidth
[] 0 setdash
1 setlinecap
1 setlinejoin
10.00 setmiterlimit
np
458.40 98.30 m
-2.64 66.58 l
-2.70 -66.58 l
-2.78 44.38 l
-2.85 -55.48 l
-2.93 99.87 l
-3.02 44.39 l
-3.11 11.09 l
-3.20 -88.77 l
-3.30 22.19 l
-3.42 -44.38 l
-3.53 55.48 l
-3.65 11.10 l
-3.78 -77.68 l
-3.93 22.19 l
-4.09 44.39 l
-4.25 33.29 l
-4.43 -66.58 l
-4.62 44.39 l
-4.85 -66.58 l
-5.07 33.29 l
-5.34 -33.29 l
-5.63 11.09 l
-5.95 -55.48 l
-6.31 88.77 l
-6.72 55.49 l
-7.18 55.48 l
-7.72 -55.48 l
-8.33 33.29 l
-9.06 -11.10 l
-9.92 44.39 l
-10.97 -44.39 l
-12.26 44.39 l
-13.90 44.39 l
-16.04 -66.58 l
-18.98 44.38 l
-23.23 88.78 l
-29.95 -11.10 l
-42.21 33.29 l
-72.15 -99.87 l
o
458.40 98.30 2.70 c p1
455.76 164.88 2.70 c p1
453.06 98.30 2.70 c p1
450.28 142.68 2.70 c p1
447.43 87.20 2.70 c p1
444.50 187.07 2.70 c p1
441.48 231.46 2.70 c p1
438.37 242.55 2.70 c p1
435.17 153.78 2.70 c p1
431.87 175.97 2.70 c p1
428.45 131.59 2.70 c p1
424.92 187.07 2.70 c p1
421.27 198.17 2.70 c p1
417.49 120.49 2.70 c p1
413.56 142.68 2.70 c p1
409.47 187.07 2.70 c p1
405.22 220.36 2.70 c p1
400.79 153.78 2.70 c p1
396.17 198.17 2.70 c p1
391.32 131.59 2.70 c p1
386.25 164.88 2.70 c p1
380.91 131.59 2.70 c p1
375.28 142.68 2.70 c p1
369.33 87.20 2.70 c p1
363.02 175.97 2.70 c p1
356.30 231.46 2.70 c p1
349.12 286.94 2.70 c p1
341.40 231.46 2.70 c p1
333.07 264.75 2.70 c p1
324.01 253.65 2.70 c p1
314.09 298.04 2.70 c p1
303.12 253.65 2.70 c p1
290.86 298.04 2.70 c p1
276.96 342.43 2.70 c p1
260.92 275.85 2.70 c p1
241.94 320.23 2.70 c p1
218.71 409.01 2.70 c p1
188.76 397.91 2.70 c p1
146.55 431.20 2.70 c p1
74.40 331.33 2.70 c p1
0.00 0.00 504.00 504.00 cl
0 0 0 srgb
0.75 setlinewidth
[] 0 setdash
1 setlinecap
1 setlinejoin
10.00 setmiterlimit
np
74.40 73.44 m
384.00 0 l
o
np
74.40 73.44 m
0 -7.20 l
o
np
146.55 73.44 m
0 -7.20 l
o
np
218.71 73.44 m
0 -7.20 l
o
np
314.09 73.44 m
0 -7.20 l
o
np
386.25 73.44 m
0 -7.20 l
o
np
458.40 73.44 m
0 -7.20 l
o
/Font1 findfont 12 s
74.40 47.52 (5) .5 0 t
146.55 47.52 (10) .5 0 t
218.71 47.52 (20) .5 0 t
314.09 47.52 (50) .5 0 t
386.25 47.52 (100) .5 0 t
458.40 47.52 (200) .5 0 t
np
59.04 76.10 m
0 332.91 l
o
np
59.04 76.10 m
-7.20 0 l
o
np
59.04 131.59 m
-7.20 0 l
o
np
59.04 187.07 m
-7.20 0 l
o
np
59.04 242.55 m
-7.20 0 l
o
np
59.04 298.04 m
-7.20 0 l
o
np
59.04 353.52 m
-7.20 0 l
o
np
59.04 409.01 m
-7.20 0 l
o
41.76 76.10 (0.36) .5 90 t
41.76 131.59 (0.38) .5 90 t
41.76 187.07 (0.40) .5 90 t
41.76 242.55 (0.42) .5 90 t
41.76 298.04 (0.44) .5 90 t
41.76 353.52 (0.46) .5 90 t
41.76 409.01 (0.48) .5 90 t
np
59.04 73.44 m
414.72 0 l
0 371.52 l
-414.72 0 l
0 -371.52 l
o
0.00 0.00 504.00 504.00 cl
/Font2 findfont 14 s
0 0 0 srgb
266.40 469.45 (Random Forest) .5 0 t
/Font1 findfont 12 s
241.39 18.72 (V) 0 ta
-0.840 (ar) tb
0.180 (iab) tb
-0.240 (les) tb gr
12.96 259.20 (BER) .5 90 t
ep
%%Trailer
%%Pages: 1
%%EOF
